%TF.GenerationSoftware,KiCad,Pcbnew,(6.0.1)*%
%TF.CreationDate,2023-03-11T00:38:28-06:00*%
%TF.ProjectId,fuente_reg_12_5,6675656e-7465-45f7-9265-675f31325f35,rev?*%
%TF.SameCoordinates,Original*%
%TF.FileFunction,Soldermask,Top*%
%TF.FilePolarity,Negative*%
%FSLAX46Y46*%
G04 Gerber Fmt 4.6, Leading zero omitted, Abs format (unit mm)*
G04 Created by KiCad (PCBNEW (6.0.1)) date 2023-03-11 00:38:28*
%MOMM*%
%LPD*%
G01*
G04 APERTURE LIST*
%ADD10C,0.150000*%
%ADD11R,1.600000X1.600000*%
%ADD12C,1.600000*%
%ADD13R,3.000000X3.000000*%
%ADD14C,3.000000*%
%ADD15C,6.200000*%
%ADD16R,2.200000X2.200000*%
%ADD17O,2.200000X2.200000*%
%ADD18R,1.800000X1.800000*%
%ADD19C,1.800000*%
%ADD20R,1.905000X2.000000*%
%ADD21O,1.905000X2.000000*%
%ADD22O,3.200000X5.000000*%
%ADD23O,1.600000X1.600000*%
%ADD24R,1.700000X1.700000*%
%ADD25O,1.700000X1.700000*%
G04 APERTURE END LIST*
D10*
X45085000Y-145669000D02*
X42545000Y-146685000D01*
X42545000Y-146685000D02*
X40005000Y-145669000D01*
X40005000Y-145669000D02*
X40005000Y-128651000D01*
X40005000Y-128651000D02*
X45085000Y-128651000D01*
X45085000Y-128651000D02*
X45085000Y-145669000D01*
G36*
X45085000Y-145669000D02*
G01*
X42545000Y-146685000D01*
X40005000Y-145669000D01*
X40005000Y-128651000D01*
X45085000Y-128651000D01*
X45085000Y-145669000D01*
G37*
X45085000Y-145669000D02*
X42545000Y-146685000D01*
X40005000Y-145669000D01*
X40005000Y-128651000D01*
X45085000Y-128651000D01*
X45085000Y-145669000D01*
D11*
%TO.C,C3*%
X65468500Y-129055500D03*
D12*
X65468500Y-126555500D03*
%TD*%
D13*
%TO.C,J5*%
X108013500Y-116395500D03*
D14*
X108013500Y-121475500D03*
%TD*%
D15*
%TO.C,H4*%
X111823500Y-150685500D03*
%TD*%
D11*
%TO.C,C4*%
X65468500Y-133540500D03*
D12*
X65468500Y-136040500D03*
%TD*%
D16*
%TO.C,D9*%
X74993500Y-124650500D03*
D17*
X74993500Y-114490500D03*
%TD*%
D18*
%TO.C,D3*%
X101409500Y-104711500D03*
D19*
X103949500Y-104711500D03*
%TD*%
D12*
%TO.C,C5*%
X87693500Y-114530500D03*
X87693500Y-119530500D03*
%TD*%
D20*
%TO.C,U1*%
X77533500Y-110990500D03*
D21*
X80073500Y-110990500D03*
X82613500Y-110990500D03*
%TD*%
D20*
%TO.C,U3*%
X77533500Y-145605500D03*
D21*
X80073500Y-145605500D03*
X82613500Y-145605500D03*
%TD*%
D12*
%TO.C,C11*%
X101663500Y-136755500D03*
X101663500Y-141755500D03*
%TD*%
D11*
%TO.C,C1*%
X56642000Y-120182000D03*
D12*
X56642000Y-125182000D03*
%TD*%
%TO.C,C6*%
X71183500Y-130365500D03*
X71183500Y-135365500D03*
%TD*%
D16*
%TO.C,D6*%
X83883500Y-114490500D03*
D17*
X83883500Y-124650500D03*
%TD*%
D13*
%TO.C,RV1*%
X52213500Y-149860000D03*
D14*
X57213500Y-149860000D03*
X62213500Y-149860000D03*
%TD*%
D20*
%TO.C,U2*%
X77533500Y-131310500D03*
D21*
X80073500Y-131310500D03*
X82613500Y-131310500D03*
%TD*%
D22*
%TO.C,HS1*%
X71010000Y-105972000D03*
X89010000Y-105972000D03*
%TD*%
D13*
%TO.C,J3*%
X108013500Y-136715500D03*
D14*
X108013500Y-141795500D03*
%TD*%
D16*
%TO.C,D1*%
X64833500Y-113855500D03*
D17*
X54673500Y-113855500D03*
%TD*%
D11*
%TO.C,C9*%
X95948500Y-127865500D03*
D12*
X95948500Y-130365500D03*
%TD*%
D15*
%TO.C,H1*%
X41973500Y-101155500D03*
%TD*%
D13*
%TO.C,J1*%
X47053500Y-115125500D03*
X47053500Y-110045500D03*
%TD*%
D16*
%TO.C,D8*%
X74993500Y-149740500D03*
D17*
X85153500Y-149740500D03*
%TD*%
D11*
%TO.C,C2*%
X95948500Y-110085500D03*
D12*
X95948500Y-112585500D03*
%TD*%
%TO.C,R2*%
X71818500Y-124650500D03*
D23*
X71818500Y-114490500D03*
%TD*%
D11*
%TO.C,C10*%
X95948500Y-138025500D03*
D12*
X95948500Y-140525500D03*
%TD*%
D16*
%TO.C,D2*%
X54673500Y-110045500D03*
D17*
X64833500Y-110045500D03*
%TD*%
D12*
%TO.C,C14*%
X101663500Y-116435500D03*
X101663500Y-121435500D03*
%TD*%
%TO.C,C12*%
X101663500Y-126595500D03*
X101663500Y-131595500D03*
%TD*%
D16*
%TO.C,D4*%
X64833500Y-102425500D03*
D17*
X54673500Y-102425500D03*
%TD*%
D13*
%TO.C,J4*%
X108013500Y-126555500D03*
D14*
X108013500Y-131635500D03*
%TD*%
D12*
%TO.C,C7*%
X71183500Y-144660500D03*
X71183500Y-149660500D03*
%TD*%
D15*
%TO.C,H2*%
X41973500Y-150685500D03*
%TD*%
D12*
%TO.C,R1*%
X112331500Y-110807500D03*
D23*
X102171500Y-110807500D03*
%TD*%
D15*
%TO.C,H3*%
X111823500Y-101155500D03*
%TD*%
D24*
%TO.C,J2*%
X52148500Y-134175500D03*
D25*
X54688500Y-134175500D03*
X57228500Y-134175500D03*
%TD*%
D16*
%TO.C,D7*%
X74993500Y-135445500D03*
D17*
X85153500Y-135445500D03*
%TD*%
D11*
%TO.C,C13*%
X95948500Y-117665500D03*
D12*
X95948500Y-120165500D03*
%TD*%
D16*
%TO.C,D5*%
X54673500Y-106235500D03*
D17*
X64833500Y-106235500D03*
%TD*%
D12*
%TO.C,C8*%
X78168500Y-114530500D03*
X78168500Y-119530500D03*
%TD*%
M02*
